%YAML 1.1
%TAG !u! tag:unity3d.com,2011:
--- !u!114 &11400000
MonoBehaviour:
  m_ObjectHideFlags: 0
  m_PrefabParentObject: {fileID: 0}
  m_PrefabInternal: {fileID: 0}
  m_GameObject: {fileID: 0}
  m_Enabled: 1
  m_EditorHideFlags: 0
  m_Script: {fileID: 11500000, guid: 8a6933dda7a6cf041b99bc356506c782, type: 3}
  m_Name: game.end
  m_EditorClassIdentifier: Assembly-CSharp:SteamGameDev.Commads:MultiCommand
  _tag: game.end
  Commands:
  - {fileID: 11400000, guid: cf648784e8d121a42954bc79373fb256, type: 2}
  - {fileID: 11400000, guid: 7caf85c1e317d464cb66887d99d6a0fd, type: 2}
